<svg width="18" height="16" viewBox="0 0 18 16" fill="none" xmlns="http://www.w3.org/2000/svg">
<path d="M8.16667 11.3333L4.83333 7.99998M4.83333 7.99998L8.16667 4.66665M4.83333 7.99998L16.5 7.99998M12.3333 11.3333V12.1666C12.3333 13.5474 11.214 14.6666 9.83333 14.6666H4C2.61929 14.6666 1.5 13.5474 1.5 12.1666V3.83331C1.5 2.4526 2.61929 1.33331 4 1.33331H9.83333C11.214 1.33331 12.3333 2.4526 12.3333 3.83331V4.66665" stroke="white" stroke-width="2" stroke-linecap="round" stroke-linejoin="round"/>
</svg>
